###############################################################################
#
# IAR ANSI C/C++ Compiler V7.20.1.7305/W32 for ARM        23/Jul/2014  10:48:22
# Copyright 1999-2014 IAR Systems AB.
#
#    Cpu mode     =  thumb
#    Endian       =  little
#    Source file  =  
#        C:\Users\kammen\Documents\ST Micro\Modified
#        5\STM32F429I-Discovery_FW_V1.0.1\Projects\Demonstration\Core\GUIBuilder\Safety_Screen6DLG.c
#    Command line =  
#        "C:\Users\kammen\Documents\ST Micro\Modified
#        5\STM32F429I-Discovery_FW_V1.0.1\Projects\Demonstration\Core\GUIBuilder\Safety_Screen6DLG.c"
#        -D USE_STDPERIPH_DRIVER -D STM32F429_439xx -D USE_STM32F429I_DISCO -D
#        USE_USB_OTG_HS -D USE_EMBEDDED_PHY -lcN "C:\Users\kammen\Documents\ST
#        Micro\Modified
#        5\STM32F429I-Discovery_FW_V1.0.1\Projects\Demonstration\EWARM\STM32F429I-Discovery_Demo\List\"
#        --diag_suppress Pe111,Pa082 -o "C:\Users\kammen\Documents\ST
#        Micro\Modified
#        5\STM32F429I-Discovery_FW_V1.0.1\Projects\Demonstration\EWARM\STM32F429I-Discovery_Demo\Obj\"
#        --debug --endian=little --cpu=Cortex-M4F -e --fpu=VFPv4_sp
#        --dlib_config "C:\Program Files (x86)\IAR Systems\Embedded Workbench
#        7.0\arm\INC\c\DLib_Config_Full.h" -I "C:\Users\kammen\Documents\ST
#        Micro\Modified
#        5\STM32F429I-Discovery_FW_V1.0.1\Projects\Demonstration\EWARM\..\Config\"
#        -I "C:\Users\kammen\Documents\ST Micro\Modified
#        5\STM32F429I-Discovery_FW_V1.0.1\Projects\Demonstration\EWARM\..\Core\Devices\STM32F4xx\"
#        -I "C:\Users\kammen\Documents\ST Micro\Modified
#        5\STM32F429I-Discovery_FW_V1.0.1\Projects\Demonstration\EWARM\..\Core\User\"
#        -I "C:\Users\kammen\Documents\ST Micro\Modified
#        5\STM32F429I-Discovery_FW_V1.0.1\Projects\Demonstration\EWARM\..\Core\Demo\"
#        -I "C:\Users\kammen\Documents\ST Micro\Modified
#        5\STM32F429I-Discovery_FW_V1.0.1\Projects\Demonstration\EWARM\..\Core\Lib\"
#        -I "C:\Users\kammen\Documents\ST Micro\Modified
#        5\STM32F429I-Discovery_FW_V1.0.1\Projects\Demonstration\EWARM\..\Core\Test_Program\"
#        -I "C:\Users\kammen\Documents\ST Micro\Modified
#        5\STM32F429I-Discovery_FW_V1.0.1\Projects\Demonstration\EWARM\..\..\..\Libraries\STM32_USB_HOST_Library\Core\inc\"
#        -I "C:\Users\kammen\Documents\ST Micro\Modified
#        5\STM32F429I-Discovery_FW_V1.0.1\Projects\Demonstration\EWARM\..\..\..\Libraries\STM32_USB_HOST_Library\Class\MSC\inc\"
#        -I "C:\Users\kammen\Documents\ST Micro\Modified
#        5\STM32F429I-Discovery_FW_V1.0.1\Projects\Demonstration\EWARM\..\..\..\Libraries\STM32_USB_Device_Library\Core\inc\"
#        -I "C:\Users\kammen\Documents\ST Micro\Modified
#        5\STM32F429I-Discovery_FW_V1.0.1\Projects\Demonstration\EWARM\..\..\..\Libraries\STM32_USB_Device_Library\Class\MSC\inc\"
#        -I "C:\Users\kammen\Documents\ST Micro\Modified
#        5\STM32F429I-Discovery_FW_V1.0.1\Projects\Demonstration\EWARM\..\..\..\Libraries\STM32_USB_Device_Library\Class\HID\inc\"
#        -I "C:\Users\kammen\Documents\ST Micro\Modified
#        5\STM32F429I-Discovery_FW_V1.0.1\Projects\Demonstration\EWARM\..\..\..\Libraries\STM32_USB_Device_Library\Class\Audio\inc\"
#        -I "C:\Users\kammen\Documents\ST Micro\Modified
#        5\STM32F429I-Discovery_FW_V1.0.1\Projects\Demonstration\EWARM\..\..\..\Libraries\STM32_USB_OTG_Driver\inc\"
#        -I "C:\Users\kammen\Documents\ST Micro\Modified
#        5\STM32F429I-Discovery_FW_V1.0.1\Projects\Demonstration\EWARM\..\..\..\Libraries\STM32F4xx_StdPeriph_Driver\inc\"
#        -I "C:\Users\kammen\Documents\ST Micro\Modified
#        5\STM32F429I-Discovery_FW_V1.0.1\Projects\Demonstration\EWARM\..\..\..\Libraries\CMSIS\Device\ST\STM32F4xx\Include\"
#        -I "C:\Users\kammen\Documents\ST Micro\Modified
#        5\STM32F429I-Discovery_FW_V1.0.1\Projects\Demonstration\EWARM\..\..\..\Utilities\"
#        -I "C:\Users\kammen\Documents\ST Micro\Modified
#        5\STM32F429I-Discovery_FW_V1.0.1\Projects\Demonstration\EWARM\..\..\..\Utilities\Common\"
#        -I "C:\Users\kammen\Documents\ST Micro\Modified
#        5\STM32F429I-Discovery_FW_V1.0.1\Projects\Demonstration\EWARM\..\..\..\Utilities\STM32F429i-Discovery\"
#        -I "C:\Users\kammen\Documents\ST Micro\Modified
#        5\STM32F429I-Discovery_FW_V1.0.1\Projects\Demonstration\EWARM\..\..\..\Utilities\Third_Party\fat_fs\inc\"
#        -I "C:\Users\kammen\Documents\ST Micro\Modified
#        5\STM32F429I-Discovery_FW_V1.0.1\Projects\Demonstration\EWARM\..\..\..\Utilities\Third_Party\FreeRTOS\Source\portable\IAR\ARM_CM4F\"
#        -I "C:\Users\kammen\Documents\ST Micro\Modified
#        5\STM32F429I-Discovery_FW_V1.0.1\Projects\Demonstration\EWARM\..\..\..\Utilities\Third_Party\FreeRTOS\Source\include\"
#        -I "C:\Users\kammen\Documents\ST Micro\Modified
#        5\STM32F429I-Discovery_FW_V1.0.1\Projects\Demonstration\EWARM\..\..\..\Libraries\STemWinLibrary522_4x9i\inc\"
#        -I "C:\Users\kammen\Documents\ST Micro\Modified
#        5\STM32F429I-Discovery_FW_V1.0.1\Projects\Demonstration\EWARM\..\..\..\Libraries\STemWinLibrary522_4x9i\Config\"
#        -Ohs --use_c++_inline -I "C:\Program Files (x86)\IAR Systems\Embedded
#        Workbench 7.0\arm\CMSIS\Include\"
#    List file    =  
#        C:\Users\kammen\Documents\ST Micro\Modified
#        5\STM32F429I-Discovery_FW_V1.0.1\Projects\Demonstration\EWARM\STM32F429I-Discovery_Demo\List\Safety_Screen6DLG.lst
#    Object file  =  
#        C:\Users\kammen\Documents\ST Micro\Modified
#        5\STM32F429I-Discovery_FW_V1.0.1\Projects\Demonstration\EWARM\STM32F429I-Discovery_Demo\Obj\Safety_Screen6DLG.o
#
###############################################################################

C:\Users\kammen\Documents\ST Micro\Modified 5\STM32F429I-Discovery_FW_V1.0.1\Projects\Demonstration\Core\GUIBuilder\Safety_Screen6DLG.c
      1          /*********************************************************************
      2          *                                                                    *
      3          *                SEGGER Microcontroller GmbH & Co. KG                *
      4          *        Solutions for real time microcontroller applications        *
      5          *                                                                    *
      6          **********************************************************************
      7          *                                                                    *
      8          * C-file generated by:                                               *
      9          *                                                                    *
     10          *        GUI_Builder for emWin version 5.22                          *
     11          *        Compiled Jul  4 2013, 15:16:01                              *
     12          *        (c) 2013 Segger Microcontroller GmbH & Co. KG               *
     13          *                                                                    *
     14          **********************************************************************
     15          *                                                                    *
     16          *        Internet: www.segger.com  Support: support@segger.com       *
     17          *                                                                    *
     18          **********************************************************************
     19          */
     20          
     21          // USER START (Optionally insert additional includes)
     22          #include "global_variables.h"
     23          #include "stdio.h"
     24          // USER END
     25          
     26          #include "DIALOG.h"
     27          
     28          /*********************************************************************
     29          *
     30          *       Defines
     31          *
     32          **********************************************************************
     33          */
     34          #define ID_WINDOW_0     (GUI_ID_USER + 0x00)
     35          #define ID_TEXT_0     (GUI_ID_USER + 0x20)
     36          #define ID_TEXT_1     (GUI_ID_USER + 0x21)
     37          #define ID_BUTTON_0     (GUI_ID_USER + 0x22)
     38          #define ID_BUTTON_1     (GUI_ID_USER + 0x23)
     39          #define ID_TEXT_2     (GUI_ID_USER + 0x24)
     40          #define ID_TEXT_3     (GUI_ID_USER + 0x25)
     41          #define ID_TEXT_4     (GUI_ID_USER + 0x26)
     42          
     43          
     44          // USER START (Optionally insert additional defines)
     45          // USER END
     46          
     47          /*********************************************************************
     48          *
     49          *       Static data
     50          *
     51          **********************************************************************
     52          */
     53          
     54          // USER START (Optionally insert additional static data)
     55          extern WM_HWIN CreateSafety_Screen1(void);
     56          extern WM_HWIN CreateSafety_Screen7(void);
     57          // USER END
     58          
     59          /*********************************************************************
     60          *
     61          *       _aDialogCreate
     62          */
     63          static const GUI_WIDGET_CREATE_INFO _aDialogCreate[] = {
     64            { WINDOW_CreateIndirect, "Safety_Screen6", ID_WINDOW_0, 0, 0, 240, 320, 0, 0x0, 0 },
     65            { TEXT_CreateIndirect, "<Back", ID_TEXT_0, 5, 5, 80, 20, 0, 0x0, 0 },
     66            { TEXT_CreateIndirect, "Duration>", ID_TEXT_1, 150, 5, 80, 20, 0, 0x0, 0 },
     67            { BUTTON_CreateIndirect, "+", ID_BUTTON_0, 120, 105, 120, 65, 0, 0x0, 0 },
     68            { BUTTON_CreateIndirect, "-", ID_BUTTON_1, 0, 105, 120, 65, 0, 0x0, 0 },
     69            { TEXT_CreateIndirect, "%", ID_TEXT_2, 151, 65, 44, 20, 0, 0x0, 0 },
     70            { TEXT_CreateIndirect, "100", ID_TEXT_3, 70, 58, 81, 41, 0, 0x0, 0 },
     71            { TEXT_CreateIndirect, "Reduce Offline Insulin", ID_TEXT_4, 20, 30, 209, 20, 0, 0x0, 0 },
     72            // USER START (Optionally insert additional widgets)
     73            // USER END
     74          };
     75          
     76          /*********************************************************************
     77          *
     78          *       Static code
     79          *
     80          **********************************************************************
     81          */
     82          
     83          // USER START (Optionally insert additional static code)
     84          // USER END
     85          
     86          /*********************************************************************
     87          *
     88          *       _cbDialog
     89          */
     90          static void _cbDialog(WM_MESSAGE * pMsg) {
     91            WM_HWIN hItem;
     92            int     NCode;
     93            int     Id;
     94            // USER START (Optionally insert additional variables)
     95            // USER END
     96          
     97            switch (pMsg->MsgId) {
     98            case WM_INIT_DIALOG:
     99              //
    100              // Initialization of '<Back'
    101              //
    102              hItem = WM_GetDialogItem(pMsg->hWin, ID_TEXT_0);
    103              TEXT_SetFont(hItem, GUI_FONT_20_ASCII);
    104              //
    105              // Initialization of 'Duration>'
    106              //
    107              hItem = WM_GetDialogItem(pMsg->hWin, ID_TEXT_1);
    108              TEXT_SetFont(hItem, GUI_FONT_20_ASCII);
    109              //
    110              // Initialization of '+'
    111              //
    112              hItem = WM_GetDialogItem(pMsg->hWin, ID_BUTTON_0);
    113              BUTTON_SetFont(hItem, GUI_FONT_24B_ASCII);
    114              //
    115              // Initialization of '-'
    116              //
    117              hItem = WM_GetDialogItem(pMsg->hWin, ID_BUTTON_1);
    118              BUTTON_SetFont(hItem, GUI_FONT_24B_ASCII);
    119              //
    120              // Initialization of '%'
    121              //
    122              hItem = WM_GetDialogItem(pMsg->hWin, ID_TEXT_2);
    123              TEXT_SetFont(hItem, GUI_FONT_20_ASCII);
    124              //
    125              // Initialization of '100'
    126              //
    127              hItem = WM_GetDialogItem(pMsg->hWin, ID_TEXT_3);
    128              TEXT_SetFont(hItem, GUI_FONT_D32);
    129              //
    130              // Initialization of 'Reduce Offline Insulin'
    131              //
    132              hItem = WM_GetDialogItem(pMsg->hWin, ID_TEXT_4);
    133              TEXT_SetFont(hItem, GUI_FONT_20B_ASCII);
    134              // USER START (Optionally insert additional code for further widget initialization)
    135              global_variables.safety_data.reduce_dose.reduce_pct = 100;
    136              // USER END
    137              break;
    138            case WM_NOTIFY_PARENT:
    139              Id    = WM_GetId(pMsg->hWinSrc);
    140              NCode = pMsg->Data.v;
    141              switch(Id) {
    142              case ID_BUTTON_0: // Notifications sent by '+'
    143                switch(NCode) {
    144                case WM_NOTIFICATION_CLICKED:
    145                  // USER START (Optionally insert code for reacting on notification message)
    146                  // USER END
    147                  break;
    148                case WM_NOTIFICATION_RELEASED:
    149                  // USER START (Optionally insert code for reacting on notification message)
    150                  if (global_variables.safety_data.reduce_dose.reduce_pct < 100)
    151                    global_variables.safety_data.reduce_dose.reduce_pct+=5;
    152                  hItem = WM_GetDialogItem(pMsg->hWin, ID_TEXT_3);
    153                  char str[4];
    154                  sprintf(str, "%d", global_variables.safety_data.reduce_dose.reduce_pct);
    155                  TEXT_SetText(hItem, str);      
    156                  // USER END
    157                  break;
    158                // USER START (Optionally insert additional code for further notification handling)
    159                // USER END
    160                }
    161                break;
    162              case ID_BUTTON_1: // Notifications sent by '-'
    163                switch(NCode) {
    164                case WM_NOTIFICATION_CLICKED:
    165                  // USER START (Optionally insert code for reacting on notification message)
    166                  // USER END
    167                  break;
    168                case WM_NOTIFICATION_RELEASED:
    169                  // USER START (Optionally insert code for reacting on notification message)
    170                  if (global_variables.safety_data.reduce_dose.reduce_pct > 0)
    171                    global_variables.safety_data.reduce_dose.reduce_pct-=5;
    172                  hItem = WM_GetDialogItem(pMsg->hWin, ID_TEXT_3);
    173                  char str[4];
    174                  sprintf(str, "%d", global_variables.safety_data.reduce_dose.reduce_pct);
    175                  TEXT_SetText(hItem, str);
    176                  // USER END
    177                  break;
    178                // USER START (Optionally insert additional code for further notification handling)
    179                // USER END
    180                }
    181                break;
    182              // USER START (Optionally insert additional code for further Ids)
    183              case ID_TEXT_0: // Notifications sent by 'Back'
    184                switch(NCode) {
    185                  case WM_NOTIFICATION_RELEASED:
    186                    GUI_EndDialog(pMsg->hWin, 0);
    187                    CreateSafety_Screen1();
    188                    break;
    189                }
    190                break;
    191              case ID_TEXT_1: // Notifications sent by 'Duration'
    192                switch(NCode) {
    193                  case WM_NOTIFICATION_RELEASED:
    194                    GUI_EndDialog(pMsg->hWin, 0);
    195                    CreateSafety_Screen7();
    196                    break;
    197                }
    198                break;
    199              // USER END
    200              }
    201              break;
    202            // USER START (Optionally insert additional message handling)
    203            // USER END
    204            default:
    205              WM_DefaultProc(pMsg);
    206              break;
    207            }
    208          }
    209          
    210          /*********************************************************************
    211          *
    212          *       Public code
    213          *
    214          **********************************************************************
    215          */
    216          /*********************************************************************
    217          *
    218          *       CreateSafety_Screen6
    219          */
    220          WM_HWIN CreateSafety_Screen6(void);
    221          WM_HWIN CreateSafety_Screen6(void) {
    222            WM_HWIN hWin;
    223          
    224            hWin = GUI_CreateDialogBox(_aDialogCreate, GUI_COUNTOF(_aDialogCreate), _cbDialog, WM_HBKWIN, 0, 0);
    225            return hWin;
    226          }
    227          
    228          // USER START (Optionally insert additional public code)
    229          // USER END
    230          
    231          /*************************** End of file ****************************/

   Maximum stack usage in bytes:

   .cstack Function
   ------- --------
      16   CreateSafety_Screen6
        16   -> GUI_CreateDialogBox
        16   -> WM_GetDesktopWindow
      24   _cbDialog
        24   -> BUTTON_SetFont
        24   -> CreateSafety_Screen1
        24   -> CreateSafety_Screen7
        24   -> GUI_EndDialog
        24   -> TEXT_SetFont
        24   -> TEXT_SetText
        24   -> WM_DefaultProc
        24   -> WM_GetDialogItem
        24   -> WM_GetId
        24   -> sprintf


   Section sizes:

   Bytes  Function/Label
   -----  --------------
       4  ??DataTable11
       4  ??DataTable11_1
       4  ??DataTable11_2
       4  ??DataTable11_3
       4  ??DataTable11_4
       4  ??DataTable11_5
       4  ??DataTable11_6
      16  ?_0
       8  ?_1
      12  ?_2
       2  ?_3
       2  ?_4
       2  ?_5
       4  ?_6
      24  ?_7
       4  ?_8
      32  CreateSafety_Screen6
     224  _aDialogCreate
     294  _cbDialog

 
  74 bytes in section .rodata
 578 bytes in section .text
 
 578 bytes of CODE  memory
  74 bytes of CONST memory

Errors: none
Warnings: none
